<?xml version="1.0" encoding="UTF-8" standalone="no"?>
<svg height="128" width="128" xmlns="http://www.w3.org/2000/svg">
  <path d="M128 108c0 11-9 20-20 20H20c-11 0-20-9-20-20V20C0 9 9 0 20 0h88c11 0 20 9 20 20"
        fill="#175ddc"/>
  <path
      d="M101 15.6h0.8v0.1H102.2v0.1h0.2l0.2 0.1 0.2 0.1 h0.1l0.1 0.1 0.2 0.2 h0.1l0.2 0.1 v0.1l0.1 0.1 h0.1v0.1h0.1v0.2h0.2v0.1l0.1 0.1 0.1 0.1 0.1 0.2 h0.1v0.2l0.1 0.1 0.1 0.1 v0.2h0.1v0.1l0.1 0.2 v0.2h0.1v0.4l0.1 0.1 V71.5l-0.1 0.3 v0.2l-0.1 0.6 -0.1 0.5 v0.6l-0.1 0.2 v0.3l-0.1 0.3 -0.1 0.3 v0.2l-0.1 0.3 v0.3l-0.2 0.2 v0.3l-0.1 0.3 v0.3l-0.2 0.2 v0.3l-0.1 0.3 -0.1 0.2 -0.2 0.6 v0.2l-0.2 0.3 -0.2 0.6 v0.2l-0.2 0.3 -0.2 0.5 -0.1 0.3 -0.2 0.3 v0.2l-0.2 0.3 -0.2 0.5 -0.3 0.5 v0.3l-0.3 0.5 -0.1 0.2 -0.2 0.3 -0.1 0.2 -0.1 0.2 -0.2 0.3 v0.2l-0.5 0.7 -0.3 0.5 -0.1 0.2 -0.1 0.3 -0.3 0.4 -0.2 0.2 -0.3 0.5 -0.1 0.2 -0.2 0.2 -0.1 0.2 -0.2 0.3 -0.1 0.2 -0.2 0.2 -0.1 0.2 -0.2 0.2 -0.2 0.2 -0.1 0.2 -0.2 0.2 -0.1 0.2 -0.2 0.3 -0.3 0.4 -0.4 0.4 -0.2 0.2 -0.1 0.2 -0.2 0.2 -0.2 0.2 -0.2 0.2 -0.1 0.2 -0.4 0.4 -0.2 0.2 -0.2 0.2 -0.2 0.2 -0.2 0.2 -0.1 0.2 -0.2 0.3 -0.4 0.3 -0.4 0.5 -0.2 0.2 -0.4 0.4 -0.2 0.2 -0.2 0.2 -0.5 0.4 -0.4 0.4 -0.2 0.2 -0.2 0.2 -0.9 0.8 -0.2 0.1 -0.2 0.2 -0.4 0.4 -0.3 0.2 -0.2 0.2 -0.2 0.2 -0.2 0.2 -0.4 0.3 -0.2 0.2 -0.2 0.2 -0.2 0.1 -0.2 0.2 -0.4 0.4 -0.2 0.1 -0.2 0.2 -0.3 0.1 -0.2 0.2 -0.3 0.3 -0.6 0.5 -0.2 0.1 -0.2 0.2 -0.2 0.1 -0.2 0.2 -0.4 0.3 -0.4 0.3 -0.2 0.1 -0.2 0.1 -0.2 0.2 -0.1 0.1 -0.2 0.1 -0.4 0.3 -0.2 0.1 -0.2 0.2 H81l-0.2 0.2 -0.2 0.1 -0.2 0.2 -0.2 0.1 -0.2 0.1 -0.2 0.1 -0.4 0.3 -0.2 0.1 -0.1 0.2 h-0.2l-0.2 0.2 -0.4 0.3 H78l-0.2 0.2 -0.2 0.1 -0.2 0.1 -0.6 0.4 -0.2 0.1 -0.2 0.2 h-0.2l-0.2 0.2 -0.1 0.1 -0.3 0.1 -0.2 0.2 h-0.2l-0.1 0.2 -0.3 0.1 -0.2 0.1 -0.2 0.2 h-0.2l-0.1 0.2 -0.3 0.1 -0.1 0.1 -0.2 0.1 -0.2 0.1 -0.2 0.2 H73l-0.2 0.2 -0.3 0.2 -0.4 0.2 H72l-0.2 0.1 -0.2 0.1 -0.1 0.1 -0.3 0.2 H71l-0.2 0.2 -0.2 0.1 -0.2 0.1 h-0.1l-0.1 0.1 -0.2 0.1 H70l-0.1 0.1 -0.1 0.1 h-0.2v0.1l-0.2 0.1 h-0.1l-0.2 0.2 h-0.2l-0.1 0.1 -0.2 0.1 h-0.2v0.1l-0.2 0.1 h-0.2v0.1l-0.2 0.1 -0.2 0.1 h-0.1l-0.1 0.1 h-0.1l-0.2 0.2 h-0.2l-0.2 0.1 -0.1 0.1 h-0.2v0.1H66l-0.1 0.1 h-0.1l-0.2 0.1 h-0.1v0.1h-0.2l-0.1 0.1 H65v0.1h-0.5l-0.1 0.1 h-1.2v-0.1H62.8l-0.1-0.1h-0.2v-0.1h-0.2v-0.1h-0.2l-0.1-0.1h-0.2v-0.1h-0.2v-0.1h-0.2v-0.1h-0.2l-0.2-0.2H61l-0.2-0.2h-0.2v-0.1h-0.3v-0.1H60l-0.3-0.2h-0.2v-0.1h-0.2v-0.1h-0.2v-0.1l-0.3-0.1-0.1-0.1h-0.1l-0.1-0.1h-0.1l-0.2-0.2H58l-0.1-0.2h-0.2l-0.1-0.1-0.3-0.2h-0.1l-0.2-0.1-0.1-0.1h-0.2l-0.1-0.2h-0.2l-0.2-0.2h-0.1l-0.2-0.1-0.3-0.2-0.4-0.2-0.2-0.2H55l-0.2-0.2h-0.2l-0.1-0.2-0.2-0.1-0.2-0.1-0.2-0.1-0.2-0.1-0.2-0.2h-0.2l-0.2-0.2-0.2-0.1-0.2-0.1-0.2-0.2h-0.2l-0.2-0.2-0.2-0.1-0.2-0.1-0.2-0.2h-0.2l-0.6-0.5h-0.2l-0.2-0.2-0.2-0.1-0.2-0.1-0.4-0.3-0.1-0.1-0.2-0.1-0.2-0.2h-0.2l-0.4-0.4H48l-0.2-0.2-0.2-0.1-0.2-0.2h-0.1l-0.2-0.2-0.2-0.1-0.2-0.2-0.2-0.1-0.4-0.3-0.2-0.1-0.1-0.1-0.2-0.2-0.2-0.1-0.2-0.1-0.4-0.3-0.4-0.3-0.2-0.2-0.2-0.1-0.1-0.2-0.3-0.1-0.5-0.5-0.4-0.3-0.2-0.2-0.2-0.1-0.2-0.2-0.3-0.1-0.4-0.4-0.2-0.2-0.2-0.1-0.2-0.2-0.2-0.2-0.4-0.3-0.2-0.2-0.2-0.2-0.2-0.2-0.3-0.2-0.4-0.4-0.2-0.2-0.2-0.2-0.9-0.7-0.2-0.2-0.2-0.2-0.2-0.2-0.4-0.4-0.3-0.2-0.2-0.2-0.2-0.2-0.4-0.4-0.2-0.2-0.4-0.5-0.2-0.1-0.5-0.7-0.2-0.2-0.2-0.2-0.2-0.2-0.2-0.2-0.4-0.4-0.1-0.2-0.2-0.2-0.2-0.2-0.2-0.2-0.1-0.2-0.2-0.2-0.3-0.4-0.4-0.5-0.1-0.2-0.2-0.2-0.2-0.2-0.1-0.2-0.2-0.2-0.2-0.2-0.1-0.2-0.2-0.2-0.1-0.2-0.2-0.3-0.1-0.2-0.2-0.2-0.1-0.2-0.3-0.5-0.2-0.2-0.2-0.4-0.2-0.3-0.1-0.2-0.3-0.5-0.4-0.7-0.1-0.2-0.2-0.3V84l-0.2-0.3-0.1-0.2-0.2-0.2-0.2-0.5-0.1-0.3-0.3-0.5-0.2-0.5-0.1-0.3-0.1-0.2-0.1-0.3-0.2-0.3-0.2-0.5v-0.3l-0.2-0.2-0.1-0.3-0.1-0.3-0.1-0.3v-0.2l-0.3-0.6v-0.2l-0.2-0.3v-0.3l-0.1-0.3v-0.2L24 76v-0.3l-0.1-0.2v-0.3l-0.1-0.3v-0.3l-0.1-0.2-0.1-0.3v-0.3l-0.1-0.2V73l-0.1-0.3-0.1-0.5v-0.6l-0.1-0.2V70.4l-0.1-0.3V18.7h0.1v-0.4h0.1v-0.1l0.1-0.1V18l0.1-0.2v-0.1h0.1v-0.1l0.1-0.1 0.1 -0.1v-0.2h0.2V17l0.1-0.1 0.1 -0.1v-0.1h0.1l0.1-0.1 0.1 -0.1 0.2 -0.2h0.1l0.1-0.1 0.1 -0.1h0.1V16h0.2l0.2-0.2h0.2l0.1-0.1H26.2l0.1-0.1h0.4v-0.1H101zm-37 84.9l0.8-0.4 0.4 -0.2 0.4 -0.2 0.3 -0.2 0.4 -0.2 1.1-0.7 0.7 -0.4 0.4 -0.2 0.3 -0.2 0.7 -0.4 0.4 -0.3 0.3 -0.2 0.4 -0.2 0.3 -0.2 0.4 -0.2 0.3 -0.2 0.3 -0.3 0.4 -0.2 0.3 -0.2 0.7 -0.4 0.3 -0.3 0.3 -0.2 0.7 -0.5 0.3 -0.2 0.3 -0.2 0.3 -0.2 0.3 -0.3 0.3 -0.2 0.4 -0.2 0.3 -0.3 0.3 -0.2 0.3 -0.2 0.3 -0.3 0.7 -0.6 0.7 -0.5 0.7 -0.6 0.7 -0.6 0.7 -0.6 0.6 -0.6 0.7 -0.6 0.6 -0.5 0.6 -0.6 0.5 -0.6 0.6 -0.6 0.5 -0.6 0.5 -0.5 0.5 -0.6 0.5 -0.6 0.5 -0.6 0.4 -0.6 0.4 -0.5 0.4 -0.6 0.4 -0.6 0.4 -0.6 0.3 -0.5 0.4 -0.6 0.3 -0.6 0.3 -0.6 0.2 -0.5 0.3 -0.6 0.2 -0.6 0.2 -0.5 0.2 -0.6 0.2 -0.6 0.2 -0.5 0.1 -0.6 0.1 -0.6 0.1 -0.5 0.1 -0.6v-0.6l0.1-0.5V27.8H64.2v72.7z"
      fill="#FFFFFF"/>
</svg>